…
thin the data frame

``` r
pulse_df = pivot_longer(pulse_df1, 
                        bdi_score_bl:bdi_score_12m,
                        names_to = "visit",
                        names_prefix = "bdi_score_",
                        values_to = "bdi")
pulse_df
```

    ## # A tibble: 4,348 × 5
    ##       id   age sex   visit   bdi
    ##    <dbl> <dbl> <chr> <chr> <dbl>
    ##  1 10003  48.0 male  bl        7
    ##  2 10003  48.0 male  01m       1
    ##  3 10003  48.0 male  06m       2
    ##  4 10003  48.0 male  12m       0
    ##  5 10015  72.5 male  bl        6
    ##  6 10015  72.5 male  01m      NA
    ##  7 10015  72.5 male  06m      NA
    ##  8 10015  72.5 male  12m      NA
    ##  9 10022  58.5 male  bl       14
    ## 10 10022  58.5 male  01m       3
    ## # ℹ 4,338 more rows
…
``` r
pulse_df1 = read_sas("./data_import_examples/public_pulse_data.sas7bdat") |> 
  janitor::clean_names() |>
  pivot_longer(
    bdi_score_bl:bdi_score_12m,
    names_to = "visit",
    names_prefix = "bdi_score_",
    values_to = "bdi") |>
  mutate(visit = replace(visit, visit == "bl", "00m"),
         visit = factor(visit))
pulse_df1
```

    ## # A tibble: 4,348 × 5
    ##       id   age sex   visit   bdi
    ##    <dbl> <dbl> <chr> <fct> <dbl>
    ##  1 10003  48.0 male  00m       7
    ##  2 10003  48.0 male  01m       1
    ##  3 10003  48.0 male  06m       2
    ##  4 10003  48.0 male  12m       0
    ##  5 10015  72.5 male  00m       6
    ##  6 10015  72.5 male  01m      NA
    ##  7 10015  72.5 male  06m      NA
    ##  8 10015  72.5 male  12m      NA
    ##  9 10022  58.5 male  00m      14
    ## 10 10022  58.5 male  01m       3
    ## # ℹ 4,338 more rows
…
    ## Rows: 49 Columns: 8
    ## ── Column specification ────────────────────────────────────────────────────────
    ## Delimiter: ","
    ## chr (4): Group, Litter Number, GD0 weight, GD18 weight
    ## dbl (4): GD of Birth, Pups born alive, Pups dead @ birth, Pups survive
    ## 
    ## ℹ Use `spec()` to retrieve the full column specification for this data.
    ## ℹ Specify the column types or set `show_col_types = FALSE` to quiet this message.

``` r
litter_df1
```

    ## # A tibble: 98 × 3
    ##    litter_number    gd weight
    ##    <chr>         <dbl> <chr> 
    ##  1 #85               0 19.7  
    ##  2 #85              18 34.7  
    ##  3 #1/2/95/2         0 27    
    ##  4 #1/2/95/2        18 42    
    ##  5 #5/5/3/83/3-3     0 26    
    ##  6 #5/5/3/83/3-3    18 41.4  
    ##  7 #5/4/2/95/2       0 28.5  
    ##  8 #5/4/2/95/2      18 44.1  
    ##  9 #4/2/95/3-3       0 <NA>  
    ## 10 #4/2/95/3-3      18 <NA>  
    ## # ℹ 88 more rows
…
    ## Rows: 313 Columns: 6
    ## ── Column specification ────────────────────────────────────────────────────────
    ## Delimiter: ","
    ## chr (1): Litter Number
    ## dbl (5): Sex, PD ears, PD eyes, PD pivot, PD walk
    ## 
    ## ℹ Use `spec()` to retrieve the full column specification for this data.
    ## ℹ Specify the column types or set `show_col_types = FALSE` to quiet this message.

``` r
pup_df
```

    ## # A tibble: 313 × 6
    ##    litter_number sex   pd_ears pd_eyes pd_pivot pd_walk
    ##    <chr>         <fct>   <dbl>   <dbl>    <dbl>   <dbl>
    ##  1 #85           male        4      13        7      11
    ##  2 #85           male        4      13        7      12
    ##  3 #1/2/95/2     male        5      13        7       9
    ##  4 #1/2/95/2     male        5      13        8      10
    ##  5 #5/5/3/83/3-3 male        5      13        8      10
    ##  6 #5/5/3/83/3-3 male        5      14        6       9
    ##  7 #5/4/2/95/2   male       NA      14        5       9
    ##  8 #4/2/95/3-3   male        4      13        6       8
    ##  9 #4/2/95/3-3   male        4      13        7       9
    ## 10 #2/2/95/3-2   male        4      NA        8      10
    ## # ℹ 303 more rows
…
    ## Rows: 49 Columns: 8
    ## ── Column specification ────────────────────────────────────────────────────────
    ## Delimiter: ","
    ## chr (2): Group, Litter Number
    ## dbl (6): GD0 weight, GD18 weight, GD of Birth, Pups born alive, Pups dead @ ...
    ## 
    ## ℹ Use `spec()` to retrieve the full column specification for this data.
    ## ℹ Specify the column types or set `show_col_types = FALSE` to quiet this message.

``` r
litter_df
```

    ## # A tibble: 49 × 10
    ##    litter_number   dose  day_of_tx gd0_weight gd18_weight gd_of_birth
    ##    <chr>           <chr> <chr>          <dbl>       <dbl>       <dbl>
    ##  1 #85             con   7               19.7        34.7          20
    ##  2 #1/2/95/2       con   7               27          42            19
    ##  3 #5/5/3/83/3-3   con   7               26          41.4          19
    ##  4 #5/4/2/95/2     con   7               28.5        44.1          19
    ##  5 #4/2/95/3-3     con   7               NA          NA            20
    ##  6 #2/2/95/3-2     con   7               NA          NA            20
    ##  7 #1/5/3/83/3-3/2 con   7               NA          NA            20
    ##  8 #3/83/3-3       con   8               NA          NA            20
    ##  9 #2/95/3         con   8               NA          NA            20
    ## 10 #3/5/2/2/95     con   8               28.5        NA            20
    ## # ℹ 39 more rows
    ## # ℹ 4 more variables: pups_born_alive <dbl>, pups_dead_birth <dbl>,
    ## #   pups_survive <dbl>, wt_gain <dbl>
…
